{
  "images" : [
    {
      "idiom" : "iphone",
      "scale" : "1x",
      "filename" : "icon2x.jpg"
    },
    {
      "idiom" : "iphone",
      "scale" : "2x",
      "filename" : "icon3x.jpg"
    },
    {
      "idiom" : "iphone",
      "filename" : "icon2x-1.jpg",
      "subtype" : "retina4",
      "scale" : "2x"
    },
    {
      "idiom" : "iphone",
      "scale" : "3x",
      "filename" : "icon3x-1.jpg"
    }
  ],
  "info" : {
    "version" : 1,
    "author" : "xcode"
  }
}